<?xml version="1.0" encoding="UTF-8" standalone="no"?>
<svg
   xmlns:dc="http://purl.org/dc/elements/1.1/"
   xmlns:cc="http://creativecommons.org/ns#"
   xmlns:rdf="http://www.w3.org/1999/02/22-rdf-syntax-ns#"
   xmlns="http://www.w3.org/2000/svg"
   viewBox="0 0 528.65332 92.626663"
   height="92.626663"
   width="528.65332"
   xml:space="preserve"
   id="svg2"
   version="1.1"><metadata
     id="metadata8"><rdf:RDF><cc:Work
         rdf:about=""><dc:format>image/svg+xml</dc:format><dc:type
           rdf:resource="http://purl.org/dc/dcmitype/StillImage" /></cc:Work></rdf:RDF></metadata><defs
     id="defs6" /><g
     transform="matrix(1.3333333,0,0,-1.3333333,0,92.626667)"
     id="g10"><g
       transform="scale(0.1)"
       id="g12"><path
         id="path14"
         style="fill:#b5251a;fill-opacity:1;fill-rule:nonzero;stroke:none"
         d="M 88.8086,622.484 H 0 v 72.231 H 254.391 V 622.484 H 165.582 V 158.813 H 88.8086 v 463.671" /><path
         id="path16"
         style="fill:#b5251a;fill-opacity:1;fill-rule:nonzero;stroke:none"
         d="m 292.012,274.742 c 0,-14.57 3.394,-25.488 10.168,-32.738 6.789,-7.274 15.906,-10.922 27.457,-10.922 11.527,0 20.707,3.648 27.496,10.922 6.75,7.25 10.144,18.168 10.144,32.738 V 424.52 c 0,14.546 -3.394,25.445 -10.144,32.742 -6.789,7.269 -15.969,10.918 -27.496,10.918 -11.551,0 -20.668,-3.649 -27.457,-10.918 -6.774,-7.297 -10.168,-18.196 -10.168,-32.742 z m -76.754,137.707 c 0,15.594 0.984,29.867 2.996,42.903 2.012,13.058 5.785,24.586 11.277,34.625 9.055,16.558 22.09,29.871 39.153,39.91 17.043,10.019 37.371,15.047 60.953,15.047 23.597,0 43.91,-5.028 60.992,-15.047 17.039,-10.039 30.098,-23.352 39.152,-39.91 5.492,-10.039 9.266,-21.567 11.278,-34.625 1.968,-13.036 2.972,-27.309 2.972,-42.903 V 286.773 c 0,-15.554 -1.004,-29.871 -2.972,-42.906 -2.012,-13.058 -5.786,-24.586 -11.278,-34.605 -9.054,-16.559 -22.113,-29.867 -39.152,-39.883 -17.082,-10.063 -37.395,-15.051 -60.992,-15.051 -23.582,0 -43.91,4.988 -60.953,15.051 -17.063,10.016 -30.098,23.324 -39.153,39.883 -5.492,10.019 -9.265,21.547 -11.277,34.605 -2.012,13.035 -2.996,27.352 -2.996,42.906 v 125.676" /><path
         id="path18"
         style="fill:#b5251a;fill-opacity:1;fill-rule:nonzero;stroke:none"
         d="m 638.246,416.242 c 0,15.531 -3.016,28.067 -9.055,37.602 -6.015,9.535 -15.57,14.336 -28.586,14.336 -11.57,0 -20.816,-4.422 -27.835,-13.184 -7.086,-8.805 -10.543,-20.226 -10.543,-34.25 V 272.477 c 0,-12.032 3.605,-21.965 10.898,-29.719 7.273,-7.797 16.41,-11.676 27.48,-11.676 14.524,0 24.458,4.504 29.743,13.563 5.257,9.011 7.898,19.55 7.898,31.625 z M 485.449,540.406 h 76.778 v -34.625 c 9.535,11.047 19.304,20.332 29.324,27.856 10.058,7.547 24.586,11.297 43.679,11.297 31.606,0 53.911,-12.008 66.965,-36.133 4.528,-8.531 7.778,-19.055 9.789,-31.61 1.993,-12.531 3.02,-29.363 3.02,-50.425 V 281.512 c 0,-27.625 -0.754,-47.914 -2.242,-60.973 -1.512,-13.078 -4.801,-23.582 -9.813,-31.609 -6.539,-10.02 -14.922,-18.297 -25.215,-24.856 -10.269,-6.5 -24.711,-9.746 -43.257,-9.746 -15.075,0 -28.508,3.371 -40.266,10.145 -11.801,6.789 -21.965,16.429 -30.477,28.965 h -1.507 V 4.52734 H 485.449 V 540.406" /><path
         id="path20"
         style="fill:#55595c;fill-opacity:1;fill-rule:nonzero;stroke:none"
         d="m 839.926,276.27 c 0,-12.075 2.66,-22.614 7.922,-31.625 5.257,-9.059 15.152,-13.563 29.718,-13.563 11.047,0 20.188,3.879 27.481,11.676 7.25,7.754 10.918,17.687 10.918,29.719 v 148.269 c 0,14.024 -3.52,25.445 -10.563,34.25 -7,8.762 -16.304,13.184 -27.836,13.184 -13.054,0 -22.593,-4.801 -28.609,-14.336 -6.016,-9.535 -9.031,-22.071 -9.031,-37.602 z m 0,-161.872 c 0.523,-8.992 4.148,-17.5425 10.937,-25.5503 6.75,-8.0274 16.664,-12.0508 29.723,-12.0508 12.535,0 21.547,3.8789 27.125,11.6719 5.465,7.7578 8.254,17.6482 8.254,29.7222 v 75.247 h -1.531 c -8.508,-12.536 -18.696,-22.176 -30.454,-28.965 -11.82,-6.774 -25.488,-10.145 -41.039,-10.145 -31.605,0 -53.949,12.031 -66.964,36.113 -4.532,8.508 -7.797,19.075 -9.789,31.61 -2.036,12.531 -3.02,29.344 -3.02,50.426 V 417.75 c 0,27.582 0.734,47.895 2.242,60.953 1.512,13.059 4.778,23.559 9.77,31.606 6.539,10.019 14.965,18.339 25.254,24.839 10.269,6.516 24.691,9.786 43.261,9.786 9.539,0 17.692,-1.004 24.461,-3.016 6.77,-2.012 12.91,-4.762 18.446,-8.281 5.511,-3.5 10.523,-7.629 15.046,-12.387 4.508,-4.777 9.29,-9.934 14.317,-15.469 v 34.625 h 76.758 v -428.25 c 0,-13.0388 -2.141,-26.199 -6.375,-39.5115 C 982.074,59.3594 975.156,47.3047 965.641,36.5313 956.102,25.7383 944.031,16.957 929.484,10.1875 914.938,3.41797 897.625,0 877.566,0 866.02,0 853.969,1.90625 841.434,5.66016 828.898,9.42969 817.223,15.6992 806.43,24.4805 c -10.754,8.8047 -20.059,20.4765 -27.836,34.9843 -7.778,14.586 -12.953,32.8829 -15.426,54.9332 h 76.758" /><path
         id="path22"
         style="fill:#55595c;fill-opacity:1;fill-rule:nonzero;stroke:none"
         d="m 1110.89,380.859 h 75.29 v 43.661 c 0,14.546 -3.39,25.445 -10.17,32.742 -6.81,7.269 -15.94,10.918 -27.49,10.918 -11.53,0 -20.67,-3.649 -27.48,-10.918 -6.77,-7.297 -10.15,-18.196 -10.15,-32.742 z m 0,-60.214 v -51.918 c 0,-12.051 3.38,-21.36 10.15,-27.875 6.81,-6.524 15.95,-9.77 27.48,-9.77 14.56,0 24.18,4.277 29,12.785 4.72,8.512 7.61,17.063 8.66,25.571 h 76.74 c 0,-16.036 -2.63,-31.083 -7.91,-45.125 -5.26,-14.067 -12.93,-26.098 -22.95,-36.157 -10.04,-10.523 -22.07,-18.777 -36.11,-24.816 -14.07,-6.035 -29.87,-9.012 -47.43,-9.012 -23.58,0 -43.94,4.988 -60.96,15.051 -17.08,10.016 -30.12,23.324 -39.13,39.883 -5.53,10.019 -9.3,21.547 -11.3,34.605 -2.01,13.035 -3.01,27.352 -3.01,42.906 v 125.676 c 0,15.594 1,29.867 3.01,42.903 2,13.058 5.77,24.586 11.3,34.625 9.01,16.558 22.05,29.871 39.13,39.91 17.02,10.019 37.38,15.047 60.96,15.047 17.56,0 33.51,-3.016 47.8,-9.036 14.3,-6.011 26.33,-14.418 36.14,-25.21 9.77,-10.774 17.29,-23.434 22.55,-38 5.28,-14.571 7.91,-30.122 7.91,-46.657 V 320.645 h -152.03" /><path
         id="path24"
         style="fill:#55595c;fill-opacity:1;fill-rule:nonzero;stroke:none"
         d="m 1443.57,433.555 c -0.51,13.015 -4.65,22.824 -12.41,29.343 -7.8,6.54 -16.73,9.79 -26.75,9.79 -12.03,0 -21.33,-3.879 -27.83,-11.676 -6.54,-7.797 -9.81,-16.703 -9.81,-26.723 0,-7 1.78,-13.898 5.3,-20.687 3.48,-6.75 12.52,-12.914 27.08,-18.426 l 45.15,-18.067 c 28.59,-11.086 48.29,-26.093 59.09,-45.168 10.79,-19.074 16.2,-39.91 16.2,-62.503 0,-16.036 -2.89,-30.977 -8.66,-44.75 -5.78,-13.79 -13.69,-25.989 -23.72,-36.532 -10.02,-10.523 -22.08,-18.777 -36.1,-24.816 -14.08,-6.035 -29.4,-9.012 -45.94,-9.012 -15.05,0 -29.34,2.516 -42.91,7.5 -13.54,5.012 -25.48,12.309 -35.71,21.844 -10.33,9.496 -18.72,21.441 -25.26,35.734 -6.52,14.317 -10.02,30.981 -10.52,50.032 h 72.27 c 1.51,-10.5 5.11,-20.309 10.9,-29.321 5.74,-9.035 15.91,-13.582 30.47,-13.582 11.05,0 20.94,3.668 29.73,10.961 8.78,7.254 13.18,17.418 13.18,30.453 0,10.543 -2.75,19.598 -8.28,27.102 -5.53,7.547 -15.55,14.043 -30.12,19.554 l -36.85,13.563 c -24.1,9.055 -43.03,22.449 -56.86,40.285 -13.79,17.793 -20.69,39.508 -20.69,65.102 0,16.054 3.02,30.976 9.06,44.793 6.01,13.746 14.15,25.57 24.44,35.355 10.27,9.77 22.23,17.438 35.75,22.953 13.56,5.512 28.11,8.278 43.66,8.278 15.56,0 30,-2.891 43.29,-8.676 13.26,-5.766 24.71,-13.52 34.24,-23.285 9.5,-9.789 17.04,-21.614 22.58,-35.403 5.49,-13.812 8.26,-28.465 8.26,-44.015 h -72.23" /><path
         id="path26"
         style="fill:#55595c;fill-opacity:1;fill-rule:nonzero;stroke:none"
         d="m 1635.48,268.727 c 0,-12.051 3.43,-21.36 10.14,-27.875 6.81,-6.524 15.93,-9.77 27.5,-9.77 14.55,0 24.19,4.277 28.95,12.785 4.75,8.512 7.67,17.063 8.67,25.571 h 76.78 c 0,-16.036 -2.64,-31.083 -7.88,-45.125 -5.33,-14.067 -12.96,-26.098 -22.99,-36.157 -10.02,-10.523 -22.07,-18.777 -36.1,-24.816 -14.08,-6.035 -29.89,-9.012 -47.43,-9.012 -23.6,0 -43.91,4.988 -60.95,15.051 -17.08,10.016 -30.12,23.324 -39.15,39.883 -5.54,10.019 -9.31,21.547 -11.28,34.605 -2.03,13.035 -3.02,27.352 -3.02,42.906 v 125.676 c 0,15.594 0.99,29.867 3.02,42.903 1.97,13.058 5.74,24.586 11.28,34.625 9.03,16.558 22.07,29.871 39.15,39.91 17.04,10.019 37.35,15.047 60.95,15.047 17.54,0 33.47,-3.016 47.81,-9.036 14.27,-6.011 26.33,-14.418 36.11,-25.21 9.75,-10.774 17.27,-23.708 22.6,-38.754 5.24,-15.075 7.88,-31.36 7.88,-48.922 h -76.78 c 0,15.551 -3.37,26.953 -10.14,34.25 -6.79,7.269 -15.95,10.918 -27.48,10.918 -11.57,0 -20.69,-3.649 -27.5,-10.918 -6.71,-7.297 -10.14,-18.196 -10.14,-32.742 V 268.727" /><path
         id="path28"
         style="fill:#55595c;fill-opacity:1;fill-rule:nonzero;stroke:none"
         d="m 1823.63,694.715 h 76.78 V 503.559 h 1.51 c 8,12.031 17.69,21.925 28.96,29.722 11.3,7.754 25.7,11.653 43.31,11.653 9.51,0 19.05,-1.614 28.59,-4.903 9.53,-3.25 18.06,-8.617 25.57,-16.16 7.54,-7.523 13.54,-17.211 18.04,-29.012 4.55,-11.754 6.82,-26.175 6.82,-43.238 V 158.813 h -76.8 v 264.199 c 0,14.043 -3.27,25.09 -9.75,33.117 -6.56,8.008 -15.82,12.051 -27.87,12.051 -14.55,0 -24.59,-4.547 -30.08,-13.539 -5.58,-9.055 -8.3,-22.114 -8.3,-39.176 V 158.813 h -76.78 v 535.902" /><path
         id="path30"
         style="fill:#55595c;fill-opacity:1;fill-rule:nonzero;stroke:none"
         d="m 2171.36,380.859 h 75.26 v 43.661 c 0,14.546 -3.39,25.445 -10.14,32.742 -6.79,7.269 -15.93,10.918 -27.52,10.918 -11.53,0 -20.67,-3.649 -27.44,-10.918 -6.79,-7.297 -10.16,-18.196 -10.16,-32.742 z m 0,-60.214 v -51.918 c 0,-12.051 3.37,-21.36 10.16,-27.875 6.77,-6.524 15.91,-9.77 27.44,-9.77 14.57,0 24.23,4.277 29.01,12.785 4.75,8.512 7.65,17.063 8.65,25.571 h 76.76 c 0,-16.036 -2.64,-31.083 -7.88,-45.125 -5.28,-14.067 -12.94,-26.098 -22.95,-36.157 -10.09,-10.523 -22.1,-18.777 -36.14,-24.816 -14.08,-6.035 -29.87,-9.012 -47.45,-9.012 -23.56,0 -43.87,4.988 -60.95,15.051 -17.04,10.016 -30.1,23.324 -39.11,39.883 -5.52,10.019 -9.31,21.547 -11.3,34.605 -2.01,13.035 -3.02,27.352 -3.02,42.906 v 125.676 c 0,15.594 1.01,29.867 3.02,42.903 1.99,13.058 5.78,24.586 11.3,34.625 9.01,16.558 22.07,29.871 39.11,39.91 17.08,10.019 37.39,15.047 60.95,15.047 17.58,0 33.51,-3.016 47.79,-9.036 14.33,-6.011 26.38,-14.418 36.17,-25.21 9.77,-10.774 17.3,-23.434 22.58,-38 5.24,-14.571 7.88,-30.122 7.88,-46.657 V 320.645 h -152.02" /><path
         id="path32"
         style="fill:#55595c;fill-opacity:1;fill-rule:nonzero;stroke:none"
         d="m 2364.79,540.406 h 76.78 v -36.847 h 1.51 c 8.01,12.031 17.71,21.925 28.97,29.722 11.31,7.754 25.71,11.653 43.24,11.653 9.53,0 19.07,-1.614 28.61,-4.903 9.53,-3.25 18.08,-8.617 25.63,-16.16 7.5,-7.523 13.54,-17.211 18.05,-29.012 4.53,-11.754 6.75,-26.175 6.75,-43.238 V 158.813 h -76.76 v 264.199 c 0,14.043 -3.25,25.09 -9.79,33.117 -6.52,8.008 -15.76,12.051 -27.85,12.051 -14.55,0 -24.57,-4.547 -30.08,-13.539 -5.53,-9.055 -8.28,-22.114 -8.28,-39.176 V 158.813 h -76.78 v 381.593" /><path
         id="path34"
         style="fill:#55595c;fill-opacity:1;fill-rule:nonzero;stroke:none"
         d="m 2642.49,694.715 h 76.78 V 374.109 h 1.55 l 92.54,166.297 h 76.75 l -91.03,-155.039 109.87,-226.554 h -83.58 l -69.21,164.851 -36.89,-57.957 V 158.813 h -76.78 v 535.902" /><path
         id="path36"
         style="fill:#55595c;fill-opacity:1;fill-rule:nonzero;stroke:none"
         d="m 2981.22,380.859 h 75.25 v 43.661 c 0,14.546 -3.4,25.445 -10.16,32.742 -6.8,7.269 -15.96,10.918 -27.48,10.918 -11.55,0 -20.69,-3.649 -27.46,-10.918 -6.79,-7.297 -10.15,-18.196 -10.15,-32.742 z m 0,-60.214 v -51.918 c 0,-12.051 3.36,-21.36 10.15,-27.875 6.77,-6.524 15.91,-9.77 27.46,-9.77 14.54,0 24.23,4.277 28.98,12.785 4.76,8.512 7.65,17.063 8.66,25.571 h 76.76 c 0,-16.036 -2.65,-31.083 -7.89,-45.125 -5.26,-14.067 -12.93,-26.098 -22.93,-36.157 -10.08,-10.523 -22.13,-18.777 -36.15,-24.816 -14.06,-6.035 -29.87,-9.012 -47.43,-9.012 -23.58,0 -43.91,4.988 -60.96,15.051 -17.06,10.016 -30.11,23.324 -39.15,39.883 -5.53,10.019 -9.28,21.547 -11.29,34.605 -2.02,13.035 -2.98,27.352 -2.98,42.906 v 125.676 c 0,15.594 0.96,29.867 2.98,42.903 2.01,13.058 5.76,24.586 11.29,34.625 9.04,16.558 22.09,29.871 39.15,39.91 17.05,10.019 37.38,15.047 60.96,15.047 17.56,0 33.49,-3.016 47.79,-9.036 14.31,-6.011 26.34,-14.418 36.13,-25.21 9.79,-10.774 17.33,-23.434 22.59,-38 5.24,-14.571 7.89,-30.122 7.89,-46.657 V 320.645 h -152.01" /><path
         id="path38"
         style="fill:#55595c;fill-opacity:1;fill-rule:nonzero;stroke:none"
         d="m 3174.62,540.406 h 76.82 v -36.847 h 1.47 c 7.98,12.031 17.69,21.925 28.98,29.722 11.28,7.754 25.7,11.653 43.26,11.653 9.54,0 19.08,-1.614 28.62,-4.903 9.51,-3.25 18.08,-8.617 25.61,-16.16 7.52,-7.523 13.54,-17.211 18.02,-29.012 4.53,-11.754 6.77,-26.175 6.77,-43.238 V 158.813 h -76.73 v 264.199 c 0,14.043 -3.29,25.09 -9.83,33.117 -6.5,8.008 -15.76,12.051 -27.84,12.051 -14.52,0 -24.58,-4.547 -30.11,-13.539 -5.5,-9.055 -8.22,-22.114 -8.22,-39.176 V 158.813 h -76.82 v 381.593" /><path
         id="path40"
         style="fill:#55595c;fill-opacity:1;fill-rule:nonzero;stroke:none"
         d="m 3452.34,158.813 h 76.7813 v 76.7734 H 3452.34 Z" /><path
         id="path42"
         style="fill:#55595c;fill-opacity:1;fill-rule:nonzero;stroke:none"
         d="m 3577.3,540.406 h 76.78 v -36.847 h 1.51 c 7.98,12.031 17.69,21.925 28.94,29.722 11.32,7.754 25.72,11.653 43.26,11.653 9.54,0 19.08,-1.614 28.61,-4.903 9.52,-3.25 18.09,-8.617 25.62,-16.16 7.54,-7.523 13.54,-17.211 18.04,-29.012 4.55,-11.754 6.77,-26.175 6.77,-43.238 V 158.813 h -76.73 v 264.199 c 0,14.043 -3.29,25.09 -9.83,33.117 -6.5,8.008 -15.76,12.051 -27.86,12.051 -14.52,0 -24.54,-4.547 -30.07,-13.539 -5.54,-9.055 -8.26,-22.114 -8.26,-39.176 V 158.813 h -76.78 v 381.593" /><path
         id="path44"
         style="fill:#55595c;fill-opacity:1;fill-rule:nonzero;stroke:none"
         d="m 3850.49,694.715 h 76.78 V 266.461 c 0,-14.566 2.64,-24.457 7.9,-29.719 5.28,-5.304 15.15,-8.699 29.72,-10.207 v -72.207 c -17.56,0 -33.49,1.383 -47.79,4.106 -14.27,2.789 -26.32,8.027 -36.11,15.847 -9.81,7.754 -17.33,18.653 -22.57,32.696 -5.31,14.066 -7.93,32.113 -7.93,54.222 v 433.516" /></g></g></svg>